module gitlab.com/Nacute/k-style-hub-test

go 1.19

require (
	github.com/go-playground/locales v0.14.1
	github.com/go-playground/universal-translator v0.18.1
	github.com/go-playground/validator/v10 v10.12.0
	github.com/joho/godotenv v1.5.1
	github.com/labstack/echo/v4 v4.10.2
	golang.org/x/crypto v0.8.0
	gorm.io/driver/mysql v1.5.0
	gorm.io/gorm v1.25.0
)

require (
	github.com/go-sql-driver/mysql v1.7.1 // indirect
	github.com/golang-jwt/jwt/v4 v4.5.0 // indirect
	github.com/jinzhu/inflection v1.0.0 // indirect
	github.com/jinzhu/now v1.1.5 // indirect
	github.com/labstack/gommon v0.4.0 // indirect
	github.com/leodido/go-urn v1.2.3 // indirect
	github.com/mattn/go-colorable v0.1.13 // indirect
	github.com/mattn/go-isatty v0.0.18 // indirect
	github.com/valyala/bytebufferpool v1.0.0 // indirect
	github.com/valyala/fasttemplate v1.2.2 // indirect
	golang.org/x/exp v0.0.0-20230425010034-47ecfdc1ba53 // indirect
	golang.org/x/net v0.9.0 // indirect
	golang.org/x/sys v0.7.0 // indirect
	golang.org/x/text v0.9.0 // indirect
)
